\relax 
\catcode`:\active
\catcode`;\active
\catcode`!\active
\catcode`?\active
\providecommand\HyperFirstAtBeginDocument{\AtBeginDocument}
\HyperFirstAtBeginDocument{\ifx\hyper@anchor\@undefined
\global\let\oldcontentsline\contentsline
\gdef\contentsline#1#2#3#4{\oldcontentsline{#1}{#2}{#3}}
\global\let\oldnewlabel\newlabel
\gdef\newlabel#1#2{\newlabelxx{#1}#2}
\gdef\newlabelxx#1#2#3#4#5#6{\oldnewlabel{#1}{{#2}{#3}}}
\AtEndDocument{\ifx\hyper@anchor\@undefined
\let\contentsline\oldcontentsline
\let\newlabel\oldnewlabel
\fi}
\fi}
\global\let\hyper@last\relax 
\gdef\HyperFirstAtBeginDocument#1{#1}
\providecommand\HyField@AuxAddToFields[1]{}
\select@language{french}
\@writefile{toc}{\select@language{french}}
\@writefile{lof}{\select@language{french}}
\@writefile{lot}{\select@language{french}}
\@writefile{toc}{\contentsline {paragraph}{Mots-cl\IeC {\'e}s~:}{1}{section*.1}}
\@writefile{toc}{\contentsline {section}{\numberline {1}Introduction}{1}{section.1}}
\@writefile{lof}{\contentsline {figure}{\numberline {1}{\ignorespaces Sch\IeC {\'e}ma du lancer de rayons\relax }}{1}{figure.caption.2}}
\@writefile{toc}{\contentsline {section}{\numberline {2}Impl\'ementations des diff\'erentes classes}{1}{section.2}}
\@writefile{toc}{\contentsline {subsection}{\numberline {2.1}Classes et m\IeC {\'e}thodes}{1}{subsection.2.1}}
\@writefile{toc}{\contentsline {subsection}{\numberline {2.2}Ombrage}{2}{subsection.2.2}}
\@writefile{toc}{\contentsline {paragraph}{Approche simple et probl\IeC {\`e}mes rencontr\IeC {\'e}s.}{2}{section*.3}}
\@writefile{toc}{\contentsline {paragraph}{Nouvelle approche.}{2}{section*.4}}
\@writefile{toc}{\contentsline {section}{\numberline {3}Anti-Aliasing et SSAA}{3}{section.3}}
\@writefile{toc}{\contentsline {subsection}{\numberline {3.1}Utilisation de SSAA (SuperSample Anti-Aliasing)}{3}{subsection.3.1}}
\@writefile{toc}{\contentsline {subsection}{\numberline {3.2}Impl\IeC {\'e}mentation de l'algorithme}{3}{subsection.3.2}}
\@writefile{lof}{\contentsline {figure}{\numberline {2}{\ignorespaces Comparaison entre antialiasing simple, SSAA4x et SSAA16x\relax }}{4}{figure.caption.5}}
\@writefile{toc}{\contentsline {section}{\numberline {4}Influence de la couleur de la source}{4}{section.4}}
\@writefile{toc}{\contentsline {subsection}{\numberline {4.1}Loi de Lambert}{4}{subsection.4.1}}
\@writefile{lof}{\contentsline {figure}{\numberline {3}{\ignorespaces Sch\IeC {\'e}ma pour le mod\IeC {\`e}le de Lambert\relax }}{4}{figure.caption.6}}
\@writefile{toc}{\contentsline {subsection}{\numberline {4.2}Coloration par la source lumineuse}{5}{subsection.4.2}}
\@writefile{toc}{\contentsline {section}{\numberline {5}Conclusion}{5}{section.5}}
