\relax 
\@writefile{toc}{\beamer@subsectionintoc {2}{1}{Le premier coloriage: Mod\`ele de Lambert}{6}{0}{2}}
\@writefile{nav}{\headcommand {\beamer@subsectionentry {0}{2}{1}{6}{Le premier coloriage: Mod\`ele de Lambert}}\headcommand {\beamer@subsectionpages {5}{5}}}
\@writefile{nav}{\headcommand {\slideentry {2}{1}{0}{6/6}{}{0}}}
\@writefile{nav}{\headcommand {\beamer@framepages {6}{6}}}
\@writefile{nav}{\headcommand {\slideentry {2}{1}{1}{7/7}{}{0}}}
\@writefile{nav}{\headcommand {\beamer@framepages {7}{7}}}
\@setckpt{coloriage}{
\setcounter{page}{8}
\setcounter{equation}{0}
\setcounter{enumi}{0}
\setcounter{enumii}{0}
\setcounter{enumiii}{0}
\setcounter{enumiv}{0}
\setcounter{footnote}{0}
\setcounter{mpfootnote}{0}
\setcounter{beamerpauses}{1}
\setcounter{bookmark@seq@number}{4}
\setcounter{lecture}{0}
\setcounter{part}{0}
\setcounter{section}{2}
\setcounter{subsection}{1}
\setcounter{subsubsection}{0}
\setcounter{subsectionslide}{1}
\setcounter{framenumber}{3}
\setcounter{figure}{1}
\setcounter{table}{0}
\setcounter{parentequation}{0}
\setcounter{theorem}{0}
\setcounter{lstnumber}{1}
\setcounter{ContinuedFloat}{0}
\setcounter{section@level}{0}
\setcounter{lstlisting}{0}
}
