\relax 
\providecommand\HyperFirstAtBeginDocument{\AtBeginDocument}
\HyperFirstAtBeginDocument{\ifx\hyper@anchor\@undefined
\global\let\oldcontentsline\contentsline
\gdef\contentsline#1#2#3#4{\oldcontentsline{#1}{#2}{#3}}
\global\let\oldnewlabel\newlabel
\gdef\newlabel#1#2{\newlabelxx{#1}#2}
\gdef\newlabelxx#1#2#3#4#5#6{\oldnewlabel{#1}{{#2}{#3}}}
\AtEndDocument{\ifx\hyper@anchor\@undefined
\let\contentsline\oldcontentsline
\let\newlabel\oldnewlabel
\fi}
\fi}
\global\let\hyper@last\relax 
\gdef\HyperFirstAtBeginDocument#1{#1}
\providecommand\HyField@AuxAddToFields[1]{}
\catcode`:\active
\catcode`;\active
\catcode`!\active
\catcode`?\active
\@writefile{toc}{\beamer@endinputifotherversion {3.10pt}}
\@writefile{nav}{\beamer@endinputifotherversion {3.10pt}}
\select@language{french}
\@writefile{toc}{\select@language{french}}
\@writefile{lof}{\select@language{french}}
\@writefile{lot}{\select@language{french}}
\@writefile{nav}{\headcommand {\slideentry {0}{0}{1}{1/1}{}{0}}}
\@writefile{nav}{\headcommand {\beamer@framepages {1}{1}}}
\@writefile{nav}{\headcommand {\slideentry {0}{0}{2}{2/2}{}{0}}}
\@writefile{nav}{\headcommand {\beamer@framepages {2}{2}}}
\@writefile{toc}{\beamer@sectionintoc {1}{Les impl\'ementations de base}{3}{0}{1}}
\@writefile{nav}{\headcommand {\sectionentry {1}{Les impl\'ementations de base}{3}{Les impl\'ementations de base}{0}}}
\@writefile{nav}{\headcommand {\beamer@sectionpages {1}{2}}}
\@writefile{nav}{\headcommand {\beamer@subsectionpages {1}{2}}}
\@writefile{nav}{\headcommand {\slideentry {1}{0}{3}{3/3}{}{0}}}
\@writefile{nav}{\headcommand {\beamer@framepages {3}{3}}}
\@input{base.aux}
\@writefile{toc}{\beamer@sectionintoc {2}{Coloriage et Lambert}{5}{0}{2}}
\@writefile{nav}{\headcommand {\sectionentry {2}{Coloriage et Lambert}{5}{Coloriage et Lambert}{0}}}
\@writefile{nav}{\headcommand {\beamer@sectionpages {1}{4}}}
\@writefile{nav}{\headcommand {\beamer@subsectionpages {1}{4}}}
\@writefile{nav}{\headcommand {\slideentry {2}{0}{1}{5/5}{}{0}}}
\@writefile{nav}{\headcommand {\beamer@framepages {5}{5}}}
\@input{coloriage.aux}
\@writefile{toc}{\beamer@sectionintoc {3}{Anti-aliasing et SSAA}{8}{0}{3}}
\@writefile{nav}{\headcommand {\sectionentry {3}{Anti-aliasing et SSAA}{8}{Anti-aliasing et SSAA}{0}}}
\@writefile{nav}{\headcommand {\beamer@sectionpages {1}{7}}}
\@writefile{nav}{\headcommand {\beamer@subsectionpages {1}{7}}}
\@writefile{nav}{\headcommand {\slideentry {3}{0}{2}{8/8}{}{0}}}
\@writefile{nav}{\headcommand {\beamer@framepages {8}{8}}}
\@input{ssaa.aux}
\@writefile{toc}{\beamer@sectionintoc {4}{Ombrage}{11}{0}{4}}
\@writefile{nav}{\headcommand {\sectionentry {4}{Ombrage}{11}{Ombrage}{0}}}
\@writefile{nav}{\headcommand {\beamer@sectionpages {1}{10}}}
\@writefile{nav}{\headcommand {\beamer@subsectionpages {1}{10}}}
\@writefile{nav}{\headcommand {\slideentry {4}{0}{1}{11/11}{}{0}}}
\@writefile{nav}{\headcommand {\beamer@framepages {11}{11}}}
\@input{ombrage.aux}
\@writefile{toc}{\beamer@sectionintoc {5}{Influence de la couleur de la source}{13}{0}{5}}
\@writefile{nav}{\headcommand {\sectionentry {5}{Influence de la couleur de la source}{13}{Influence de la couleur de la source}{0}}}
\@writefile{nav}{\headcommand {\beamer@sectionpages {1}{12}}}
\@writefile{nav}{\headcommand {\beamer@subsectionpages {1}{12}}}
\@writefile{nav}{\headcommand {\slideentry {5}{0}{1}{13/13}{}{0}}}
\@writefile{nav}{\headcommand {\beamer@framepages {13}{13}}}
\@input{coloriageSource.aux}
\@writefile{nav}{\headcommand {\sectionentry {6}{Questions}{15}{Questions}{0}}}
\@writefile{nav}{\headcommand {\beamer@sectionpages {1}{14}}}
\@writefile{nav}{\headcommand {\beamer@subsectionpages {1}{14}}}
\@writefile{nav}{\headcommand {\slideentry {6}{0}{3}{15/15}{}{0}}}
\@writefile{nav}{\headcommand {\beamer@framepages {15}{15}}}
\@writefile{nav}{\headcommand {\beamer@partpages {1}{15}}}
\@writefile{nav}{\headcommand {\beamer@subsectionpages {15}{15}}}
\@writefile{nav}{\headcommand {\beamer@sectionpages {15}{15}}}
\@writefile{nav}{\headcommand {\beamer@documentpages {15}}}
\@writefile{nav}{\headcommand {\def \inserttotalframenumber {7}}}
