\relax 
\@writefile{toc}{\beamer@subsectionintoc {3}{1}{Int\'er\^et de l'anti-aliasing}{9}{0}{3}}
\@writefile{nav}{\headcommand {\beamer@subsectionentry {0}{3}{1}{9}{Int\'er\^et de l'anti-aliasing}}\headcommand {\beamer@subsectionpages {8}{8}}}
\@writefile{nav}{\headcommand {\slideentry {3}{1}{0}{9/9}{}{0}}}
\@writefile{nav}{\headcommand {\beamer@framepages {9}{9}}}
\@writefile{toc}{\beamer@subsectionintoc {3}{2}{R\'ealisation d'anti-aliasing avec SSAA:SuperSample AntiAliasing}{10}{0}{3}}
\@writefile{nav}{\headcommand {\beamer@subsectionentry {0}{3}{2}{10}{R\'ealisation d'anti-aliasing avec SSAA:SuperSample AntiAliasing}}\headcommand {\beamer@subsectionpages {8}{9}}}
\@writefile{nav}{\headcommand {\slideentry {3}{2}{0}{10/10}{}{0}}}
\@writefile{nav}{\headcommand {\beamer@framepages {10}{10}}}
\@setckpt{ssaa}{
\setcounter{page}{11}
\setcounter{equation}{0}
\setcounter{enumi}{0}
\setcounter{enumii}{0}
\setcounter{enumiii}{0}
\setcounter{enumiv}{0}
\setcounter{footnote}{0}
\setcounter{mpfootnote}{0}
\setcounter{beamerpauses}{1}
\setcounter{bookmark@seq@number}{7}
\setcounter{lecture}{0}
\setcounter{part}{0}
\setcounter{section}{3}
\setcounter{subsection}{2}
\setcounter{subsubsection}{0}
\setcounter{subsectionslide}{0}
\setcounter{framenumber}{5}
\setcounter{figure}{2}
\setcounter{table}{0}
\setcounter{parentequation}{0}
\setcounter{theorem}{0}
\setcounter{lstnumber}{1}
\setcounter{ContinuedFloat}{0}
\setcounter{section@level}{0}
\setcounter{lstlisting}{0}
}
